{
  "version": 1,
  "numberOfSpeakers": 1,
  "converted": true,
  "archived": false,
  "refreshing": false,
  "toEnglish": false,
  "tts": false,
  "signLang": false,
  "articleType": "original",
  "videoSpeed": 1,
  "videoSpeedLoading": false,
  "translationProgress": 0,
  "voiceOverProgress": 0,
  "verifiers": [],
  "normalizeAudio": true,
  "volume": 1,
  "exported": false,
  "reviewCompleted": false,
  "originalTimingSet": false,
  "_id": "5dd5543d26c14e0012ddc8f8",
  "title": "Dowry HD",
  "slides": [
    {
      "content": [
        {
          "name": "",
          "audioProcessed": false,
          "audioSynced": false,
          "picInPicPosition": "tr",
          "silent": false,
          "media": [
            {
              "mediaType": "video",
              "_id": "5dd5eddfdc6a9300131515de",
              "url": "https://tailoredvideowiki.s3.eu-west-1.amazonaws.com/slides/0.0d1de721e-1764-4cea-91f0-c31e97ec0e67.mp4",
              "mediaKey": "slides/0.0d1de721e-1764-4cea-91f0-c31e97ec0e67.mp4",
              "duration": 17.37
            }
          ],
          "_id": "5dd5eb08aa552f001149beb4",
          "startTime": 0,
          "endTime": 17.37,
          "text": "Dowry can manifest in many forms, it may not always be done by traditional methods of deciding the amount before marriage. If anything of value is exchanged as a condition for marriage, either before, during or after the marriage, it is dowry.",
          "audio": "https://tailoredvideowiki.s3.eu-west-1.amazonaws.com/slides/audio-276933c3-936c-4b6f-b439-2e7b3dd084c5.mp3",
          "speakerProfile": {
            "_id": "5dd5543d26c14e0012ddc90b",
            "speakerNumber": 1,
            "speakerGender": "male"
          },
          "position": 0,
          "audioKey": "slides/audio-276933c3-936c-4b6f-b439-2e7b3dd084c5.mp3"
        }
      ],
      "_id": "5dd5ed9baa552f001149c78c",
      "position": 0
    },
    {
      "content": [
        {
          "name": "",
          "audioProcessed": false,
          "audioSynced": false,
          "picInPicPosition": "tr",
          "silent": false,
          "media": [
            {
              "mediaType": "video",
              "_id": "5dd5eddfdc6a9300131515da",
              "url": "https://tailoredvideowiki.s3.eu-west-1.amazonaws.com/slides/1.039648ea7-2d3e-42cf-aeea-a57b34cfc97d.mp4",
              "mediaKey": "slides/1.039648ea7-2d3e-42cf-aeea-a57b34cfc97d.mp4",
              "duration": 9.210983606557377
            }
          ],
          "_id": "5dd5ec0caa552f001149c403",
          "startTime": 17.37,
          "endTime": 26.58098360655738,
          "text": "Dowry could be when in \"Made in Heaven\" - Vishal's parents wait till the Bharat is at the door to impose their demand for house and cash.",
          "audio": "https://tailoredvideowiki.s3.eu-west-1.amazonaws.com/slides/audio-aa3a7c64-4a8d-4e1b-8d7f-7615e6c4b1c0.mp3",
          "speakerProfile": {
            "_id": "5dd5543d26c14e0012ddc90b",
            "speakerNumber": 1,
            "speakerGender": "male"
          },
          "position": 0,
          "audioKey": "slides/audio-aa3a7c64-4a8d-4e1b-8d7f-7615e6c4b1c0.mp3"
        },
        {
          "name": "",
          "audioProcessed": false,
          "audioSynced": false,
          "picInPicPosition": "tr",
          "silent": false,
          "media": [
            {
              "mediaType": "video",
              "_id": "5dd5eddfdc6a9300131515d7",
              "url": "https://tailoredvideowiki.s3.eu-west-1.amazonaws.com/slides/1.1ef4b2637-a08f-49e9-a22a-92fbd56fc75e.mp4",
              "mediaKey": "slides/1.1ef4b2637-a08f-49e9-a22a-92fbd56fc75e.mp4",
              "duration": 12.169016393442622
            }
          ],
          "_id": "5dd5ec0caa552f001149c401",
          "startTime": 26.58098360655738,
          "endTime": 38.75,
          "text": "Even in Lajja -  HazzareLal overburdens the bridal party with an unnecessary number of guests and threatens to leave when the father of the bride is not able to accommodate them.",
          "audio": "https://tailoredvideowiki.s3.eu-west-1.amazonaws.com/slides/audio-9777a9db-136e-4a54-9a2f-18a4f5637842.mp3",
          "speakerProfile": {
            "_id": "5dd5543d26c14e0012ddc90b",
            "speakerNumber": 1,
            "speakerGender": "male"
          },
          "position": 1,
          "audioKey": "slides/audio-9777a9db-136e-4a54-9a2f-18a4f5637842.mp3"
        }
      ],
      "_id": "5dd5ed9baa552f001149c787",
      "position": 1
    },
    {
      "content": [
        {
          "name": "",
          "audioProcessed": false,
          "audioSynced": false,
          "picInPicPosition": "tr",
          "silent": false,
          "media": [
            {
              "mediaType": "video",
              "_id": "5dd5eddfdc6a9300131515d3",
              "url": "https://tailoredvideowiki.s3.eu-west-1.amazonaws.com/slides/2.079ed4014-b579-41a9-84c6-89cddbf4313f.mp4",
              "mediaKey": "slides/2.079ed4014-b579-41a9-84c6-89cddbf4313f.mp4",
              "duration": 11.579999999999998
            }
          ],
          "_id": "5dd5543d26c14e0012ddc903",
          "startTime": 38.75,
          "endTime": 50.33,
          "text": "He even demands additional cash as dowry for the brides \"shuddhi karan\" ceremony. Dowry can be anything that adds excessive financial burden on the bride's family by coercion.",
          "audio": "https://tailoredvideowiki.s3.eu-west-1.amazonaws.com/slides/audio-01ea69f5-a701-42ac-89c7-3b8e5466bcc2.mp3",
          "speakerProfile": {
            "_id": "5dd5543d26c14e0012ddc90b",
            "speakerNumber": 1,
            "speakerGender": "male"
          },
          "position": 0,
          "audioKey": "slides/audio-01ea69f5-a701-42ac-89c7-3b8e5466bcc2.mp3"
        }
      ],
      "_id": "5dd5ed9baa552f001149c784",
      "position": 2
    },
    {
      "content": [
        {
          "name": "",
          "audioProcessed": false,
          "audioSynced": false,
          "picInPicPosition": "tr",
          "silent": false,
          "media": [
            {
              "mediaType": "video",
              "_id": "5dd5eddfdc6a9300131515cf",
              "url": "https://tailoredvideowiki.s3.eu-west-1.amazonaws.com/slides/3.068c4d7c6-cf87-4c43-a815-e3840d9415d3.mp4",
              "mediaKey": "slides/3.068c4d7c6-cf87-4c43-a815-e3840d9415d3.mp4",
              "duration": 14.960000000000008
            }
          ],
          "_id": "5dd5543d26c14e0012ddc900",
          "startTime": 50.33,
          "endTime": 65.29,
          "text": "However, it is important to note that the exchange of dowry is not the same as exchanging gifts. Gifts given out of ones own free will, not as the result of any condition to marry, will not be Dowry.",
          "audio": "https://tailoredvideowiki.s3.eu-west-1.amazonaws.com/slides/audio-452aae08-f076-4398-857a-a6a63eb151e7.mp3",
          "speakerProfile": {
            "_id": "5dd5543d26c14e0012ddc90b",
            "speakerNumber": 1,
            "speakerGender": "male"
          },
          "position": 0,
          "audioKey": "slides/audio-452aae08-f076-4398-857a-a6a63eb151e7.mp3"
        }
      ],
      "_id": "5dd5ed9baa552f001149c781",
      "position": 3
    },
    {
      "content": [
        {
          "name": "",
          "audioProcessed": false,
          "audioSynced": false,
          "picInPicPosition": "tr",
          "silent": false,
          "media": [
            {
              "mediaType": "video",
              "_id": "5dd5eddfdc6a9300131515cb",
              "url": "https://tailoredvideowiki.s3.eu-west-1.amazonaws.com/slides/4.0cd71be16-ad7a-4797-8cbc-d3da98b86eb7.mp4",
              "mediaKey": "slides/4.0cd71be16-ad7a-4797-8cbc-d3da98b86eb7.mp4",
              "duration": 12.42096699999999
            }
          ],
          "_id": "5dd5543d26c14e0012ddc8fd",
          "startTime": 65.29,
          "endTime": 77.710967,
          "text": "If you are being forced to give dowry or know someone who is being forced, then please complain to the police. To get more information on dowry and how to complain. Visit nyaaa.in",
          "audio": "https://tailoredvideowiki.s3.eu-west-1.amazonaws.com/slides/audio-7189c6c8-2a63-4f2a-9a14-d4c5b1388519.mp3",
          "speakerProfile": {
            "_id": "5dd5543d26c14e0012ddc90b",
            "speakerNumber": 1,
            "speakerGender": "male"
          },
          "position": 0,
          "audioKey": "slides/audio-7189c6c8-2a63-4f2a-9a14-d4c5b1388519.mp3"
        }
      ],
      "_id": "5dd5ed9baa552f001149c77e",
      "position": 4
    }
  ],
  "video": "5dd3d0cbb4703d001109de37",
  "langCode": "en-US",
  "speakersProfile": [
    {
      "_id": "5dd5543d26c14e0012ddc90b",
      "speakerNumber": 1,
      "speakerGender": "male"
    }
  ],
  "organization": "5dd23585b4703d001108bbb1",
  "__v": 0,
  "translators": []
}
